gpu/simulation/qsim/sparkboxGPU.msim.vcd
$comment
	File created using the following command:
		vcd file sparkboxGPU.msim.vcd -direction
$end
$date
	Wed Oct 09 21:54:48 2019
$end
$version
	ModelSim Version 10.5b
$end
$timescale
	1ps
$end

$scope module pixelCounterTop_vlg_vec_tst $end
$var reg 1 ! nextPixelPulse $end
$var reg 1 " pipelineClk $end
$var reg 1 # reset $end
$var wire 1 $ layer [4] $end
$var wire 1 % layer [3] $end
$var wire 1 & layer [2] $end
$var wire 1 ' layer [1] $end
$var wire 1 ( layer [0] $end
$var wire 1 ) x [10] $end
$var wire 1 * x [9] $end
$var wire 1 + x [8] $end
$var wire 1 , x [7] $end
$var wire 1 - x [6] $end
$var wire 1 . x [5] $end
$var wire 1 / x [4] $end
$var wire 1 0 x [3] $end
$var wire 1 1 x [2] $end
$var wire 1 2 x [1] $end
$var wire 1 3 x [0] $end
$var wire 1 4 y [10] $end
$var wire 1 5 y [9] $end
$var wire 1 6 y [8] $end
$var wire 1 7 y [7] $end
$var wire 1 8 y [6] $end
$var wire 1 9 y [5] $end
$var wire 1 : y [4] $end
$var wire 1 ; y [3] $end
$var wire 1 < y [2] $end
$var wire 1 = y [1] $end
$var wire 1 > y [0] $end

$scope module i1 $end
$var wire 1 ? gnd $end
$var wire 1 @ vcc $end
$var wire 1 A unknown $end
$var tri1 1 B devclrn $end
$var tri1 1 C devpor $end
$var tri1 1 D devoe $end
$var wire 1 E layer[0]~output_o $end
$var wire 1 F layer[1]~output_o $end
$var wire 1 G layer[2]~output_o $end
$var wire 1 H layer[3]~output_o $end
$var wire 1 I layer[4]~output_o $end
$var wire 1 J x[0]~output_o $end
$var wire 1 K x[1]~output_o $end
$var wire 1 L x[2]~output_o $end
$var wire 1 M x[3]~output_o $end
$var wire 1 N x[4]~output_o $end
$var wire 1 O x[5]~output_o $end
$var wire 1 P x[6]~output_o $end
$var wire 1 Q x[7]~output_o $end
$var wire 1 R x[8]~output_o $end
$var wire 1 S x[9]~output_o $end
$var wire 1 T x[10]~output_o $end
$var wire 1 U y[0]~output_o $end
$var wire 1 V y[1]~output_o $end
$var wire 1 W y[2]~output_o $end
$var wire 1 X y[3]~output_o $end
$var wire 1 Y y[4]~output_o $end
$var wire 1 Z y[5]~output_o $end
$var wire 1 [ y[6]~output_o $end
$var wire 1 \ y[7]~output_o $end
$var wire 1 ] y[8]~output_o $end
$var wire 1 ^ y[9]~output_o $end
$var wire 1 _ y[10]~output_o $end
$var wire 1 ` pipelineClk~input_o $end
$var wire 1 a layer_cnt_main|layer[0]~12_combout $end
$var wire 1 b nextPixelPulse~input_o $end
$var wire 1 c reset~input_o $end
$var wire 1 d comb~2_combout $end
$var wire 1 e layer_cnt_main|layer[1]~4_combout $end
$var wire 1 f layer_cnt_main|layer[1]~5 $end
$var wire 1 g layer_cnt_main|layer[2]~6_combout $end
$var wire 1 h layer_cnt_main|layer[2]~7 $end
$var wire 1 i layer_cnt_main|layer[3]~8_combout $end
$var wire 1 j layer_cnt_main|layer[3]~9 $end
$var wire 1 k layer_cnt_main|layer[4]~10_combout $end
$var wire 1 l layer_cnt_main|Equal0~0_combout $end
$var wire 1 m layer_cnt_main|Equal0~1_combout $end
$var wire 1 n layer_cnt_main|overflow~q $end
$var wire 1 o comb~1_combout $end
$var wire 1 p x_cnt_main|x[0]~11_combout $end
$var wire 1 q x_cnt_main|x[0]~12 $end
$var wire 1 r x_cnt_main|x[1]~13_combout $end
$var wire 1 s x_cnt_main|x[1]~14 $end
$var wire 1 t x_cnt_main|x[2]~15_combout $end
$var wire 1 u x_cnt_main|x[2]~16 $end
$var wire 1 v x_cnt_main|x[3]~17_combout $end
$var wire 1 w x_cnt_main|x[3]~18 $end
$var wire 1 x x_cnt_main|x[4]~19_combout $end
$var wire 1 y x_cnt_main|x[4]~20 $end
$var wire 1 z x_cnt_main|x[5]~21_combout $end
$var wire 1 { x_cnt_main|x[5]~22 $end
$var wire 1 | x_cnt_main|x[6]~23_combout $end
$var wire 1 } x_cnt_main|x[6]~24 $end
$var wire 1 ~ x_cnt_main|x[7]~25_combout $end
$var wire 1 !! x_cnt_main|x[7]~26 $end
$var wire 1 "! x_cnt_main|x[8]~27_combout $end
$var wire 1 #! x_cnt_main|x[8]~28 $end
$var wire 1 $! x_cnt_main|x[9]~29_combout $end
$var wire 1 %! y_cnt_main|Equal0~0_combout $end
$var wire 1 &! y_cnt_main|Equal0~1_combout $end
$var wire 1 '! y_cnt_main|Equal0~2_combout $end
$var wire 1 (! x_cnt_main|x[9]~30 $end
$var wire 1 )! x_cnt_main|x[10]~31_combout $end
$var wire 1 *! x_cnt_main|LessThan0~0_combout $end
$var wire 1 +! comb~0_combout $end
$var wire 1 ,! y_cnt_main|Add0~0_combout $end
$var wire 1 -! y_cnt_main|Add0~1 $end
$var wire 1 .! y_cnt_main|Add0~2_combout $end
$var wire 1 /! y_cnt_main|y~1_combout $end
$var wire 1 0! y_cnt_main|Equal0~3_combout $end
$var wire 1 1! y_cnt_main|Add0~3 $end
$var wire 1 2! y_cnt_main|Add0~4_combout $end
$var wire 1 3! y_cnt_main|y~2_combout $end
$var wire 1 4! y_cnt_main|Add0~5 $end
$var wire 1 5! y_cnt_main|Add0~6_combout $end
$var wire 1 6! y_cnt_main|y~3_combout $end
$var wire 1 7! y_cnt_main|Add0~7 $end
$var wire 1 8! y_cnt_main|Add0~9 $end
$var wire 1 9! y_cnt_main|Add0~10_combout $end
$var wire 1 :! y_cnt_main|y~5_combout $end
$var wire 1 ;! y_cnt_main|y~6_combout $end
$var wire 1 <! y_cnt_main|Add0~11 $end
$var wire 1 =! y_cnt_main|Add0~12_combout $end
$var wire 1 >! y_cnt_main|y~7_combout $end
$var wire 1 ?! y_cnt_main|Add0~13 $end
$var wire 1 @! y_cnt_main|Add0~14_combout $end
$var wire 1 A! y_cnt_main|y~8_combout $end
$var wire 1 B! y_cnt_main|Add0~15 $end
$var wire 1 C! y_cnt_main|Add0~17 $end
$var wire 1 D! y_cnt_main|Add0~19 $end
$var wire 1 E! y_cnt_main|Add0~20_combout $end
$var wire 1 F! y_cnt_main|y~9_combout $end
$var wire 1 G! y_cnt_main|Add0~16_combout $end
$var wire 1 H! y_cnt_main|LessThan0~2_combout $end
$var wire 1 I! y_cnt_main|y~4_combout $end
$var wire 1 J! y_cnt_main|Add0~8_combout $end
$var wire 1 K! y_cnt_main|LessThan0~1_combout $end
$var wire 1 L! y_cnt_main|y~10_combout $end
$var wire 1 M! y_cnt_main|Add0~18_combout $end
$var wire 1 N! y_cnt_main|LessThan0~0_combout $end
$var wire 1 O! y_cnt_main|y~0_combout $end
$var wire 1 P! layer_cnt_main|layer [4] $end
$var wire 1 Q! layer_cnt_main|layer [3] $end
$var wire 1 R! layer_cnt_main|layer [2] $end
$var wire 1 S! layer_cnt_main|layer [1] $end
$var wire 1 T! layer_cnt_main|layer [0] $end
$var wire 1 U! x_cnt_main|x [10] $end
$var wire 1 V! x_cnt_main|x [9] $end
$var wire 1 W! x_cnt_main|x [8] $end
$var wire 1 X! x_cnt_main|x [7] $end
$var wire 1 Y! x_cnt_main|x [6] $end
$var wire 1 Z! x_cnt_main|x [5] $end
$var wire 1 [! x_cnt_main|x [4] $end
$var wire 1 \! x_cnt_main|x [3] $end
$var wire 1 ]! x_cnt_main|x [2] $end
$var wire 1 ^! x_cnt_main|x [1] $end
$var wire 1 _! x_cnt_main|x [0] $end
$var wire 1 `! y_cnt_main|y [10] $end
$var wire 1 a! y_cnt_main|y [9] $end
$var wire 1 b! y_cnt_main|y [8] $end
$var wire 1 c! y_cnt_main|y [7] $end
$var wire 1 d! y_cnt_main|y [6] $end
$var wire 1 e! y_cnt_main|y [5] $end
$var wire 1 f! y_cnt_main|y [4] $end
$var wire 1 g! y_cnt_main|y [3] $end
$var wire 1 h! y_cnt_main|y [2] $end
$var wire 1 i! y_cnt_main|y [1] $end
$var wire 1 j! y_cnt_main|y [0] $end
$upscope $end
$upscope $end
$enddefinitions $end
#0
$dumpvars
0!
0"
0#
0(
0'
0&
0%
0$
03
02
01
00
0/
0.
0-
0,
0+
0*
0)
0>
0=
0<
0;
0:
09
08
07
06
05
04
0?
1@
xA
1B
1C
1D
0E
0F
0G
0H
0I
0J
0K
0L
0M
0N
0O
0P
0Q
0R
0S
0T
0U
0V
0W
0X
0Y
0Z
0[
0\
0]
0^
0_
0`
1a
0b
0c
1d
0e
0f
0g
1h
0i
0j
0k
0l
0m
0n
0o
1p
0q
0r
1s
0t
0u
0v
1w
0x
0y
0z
1{
0|
0}
0~
1!!
0"!
0#!
0$!
1%!
0&!
0'!
1(!
0)!
0*!
0+!
1,!
0-!
0.!
0/!
00!
11!
02!
03!
04!
05!
06!
17!
08!
09!
0:!
0;!
1<!
0=!
0>!
0?!
0@!
0A!
1B!
0C!
1D!
0E!
0F!
0G!
1H!
0I!
0J!
1K!
0L!
0M!
1N!
1O!
0T!
0S!
0R!
0Q!
0P!
0_!
0^!
0]!
0\!
0[!
0Z!
0Y!
0X!
0W!
0V!
0U!
0j!
0i!
0h!
0g!
0f!
0e!
0d!
0c!
0b!
0a!
z`!
$end
#5000
1"
1`
#10000
1#
0"
1c
0`
0d
#15000
1"
1`
1T!
1E
1(
1e
0a
#20000
0"
0`
#25000
1"
1`
1S!
0T!
0E
1F
1'
0(
1a
#30000
0"
0`
#35000
1"
1`
1T!
1E
1f
1(
0e
0a
1g
#40000
0"
0`
#45000
1"
1`
1R!
0S!
0T!
0E
0F
1G
0h
0f
1&
0'
0(
0g
1a
1h
1i
1g
0i
#50000
0"
0`
#55000
1"
1`
1T!
1E
1(
1e
0a
#60000
0"
0`
#65000
1"
1`
1S!
0T!
0E
1F
1'
0(
1a
#70000
0"
0`
#75000
1"
1`
1T!
1E
1f
1(
0e
0a
0h
0g
1i
#80000
0"
0`
#85000
1"
1`
1Q!
0R!
0S!
0T!
0E
0F
0G
1H
1j
1h
0f
1%
0&
0'
0(
0i
1g
1a
0j
1k
1i
0g
0k
#90000
0"
0`
#95000
1"
1`
1T!
1E
1(
1e
0a
#100000
0"
0`
#105000
1"
1`
1S!
0T!
0E
1F
1'
0(
1a
#110000
0"
0`
#115000
1"
1`
1T!
1E
1f
1(
0e
0a
1g
#120000
0"
0`
#125000
1"
1`
1R!
0S!
0T!
0E
0F
1G
0h
0f
1&
0'
0(
0g
1a
1j
1h
0i
1g
0j
1k
1i
0k
#130000
0"
0`
#135000
1"
1`
1T!
1E
1(
1e
0a
#140000
0"
0`
#145000
1"
1`
1S!
0T!
0E
1F
1'
0(
1a
#150000
0"
0`
#155000
1"
1`
1T!
1E
1l
1f
1(
0e
0a
0h
0g
1j
0i
1k
#160000
0"
0`
#165000
1"
1`
1P!
0Q!
0R!
0S!
0T!
0E
0F
0G
0H
1I
0l
0j
1h
0f
1$
0%
0&
0'
0(
1m
0k
1i
1g
1a
0m
1k
0i
0g
#170000
0"
0`
#175000
1"
1`
1T!
1E
1(
1e
0a
#180000
0"
0`
#185000
1"
1`
1S!
0T!
0E
1F
1'
0(
1a
#190000
0"
0`
#195000
1"
1`
1T!
1E
1f
1(
0e
0a
1g
#200000
0"
0`
#205000
1"
1`
1R!
0S!
0T!
0E
0F
1G
0h
0f
1&
0'
0(
0g
1a
1h
1i
1g
0i
#210000
0"
0`
#215000
1"
1`
1T!
1E
1(
1e
0a
#220000
0"
0`
#225000
1"
1`
1S!
0T!
0E
1F
1'
0(
1a
#230000
0"
0`
#235000
1"
1`
1T!
1E
1f
1(
0e
0a
0h
0g
1i
#240000
0"
0`
#245000
1"
1`
1Q!
0R!
0S!
0T!
0E
0F
0G
1H
1j
1h
0f
1%
0&
0'
0(
0i
1g
1a
0j
0k
1i
0g
1k
#250000
0"
0`
#255000
1"
1`
1T!
1E
1(
1e
0a
#260000
0"
0`
#265000
1"
1`
1S!
0T!
0E
1F
1'
0(
1a
#270000
0"
0`
#275000
1"
1`
1T!
1E
1f
1(
0e
0a
1g
#280000
0"
0`
#285000
1"
1`
1R!
0S!
0T!
0E
0F
1G
0h
0f
1&
0'
0(
0g
1a
1j
1h
0i
1g
0j
0k
1i
1k
#290000
0"
0`
#295000
1!
1"
1b
1`
1d
1+!
1o
0R!
0Q!
0P!
1_!
1J
0I
0H
0G
1q
0&
0%
0$
13
0g
0i
0k
0p
1r
#300000
0!
0"
0b
0`
0d
0+!
0o
#305000
1!
1"
1b
1`
1d
1+!
1o
0_!
1^!
1K
0J
0q
0s
03
12
1p
0r
1s
1r
1t
0t
#310000
0!
0"
0b
0`
0d
0+!
0o
#315000
1!
1"
1b
1`
1d
1+!
1o
1_!
1J
1q
13
0p
0s
0r
1t
#320000
0!
0"
0b
0`
0d
0+!
0o
#325000
1!
1"
1b
1`
1d
1+!
1o
0_!
1]!
0^!
0K
1L
0J
0q
1u
1s
03
11
02
1p
0t
1r
0u
0r
1v
1t
0v
#330000
0!
0"
0b
0`
0d
0+!
0o
#335000
1!
1"
1b
1`
1d
1+!
1o
1_!
1J
1q
13
0p
1r
#340000
0!
0"
0b
0`
0d
0+!
0o
#345000
1!
1"
1b
1`
1d
1+!
1o
0_!
1^!
1K
0J
0q
0s
03
12
1p
0r
1s
1u
1r
0t
0u
1t
1v
0v
#350000
0!
0"
0b
0`
0d
0+!
0o
#355000
1!
1"
1b
1`
1d
1+!
1o
1_!
1J
1q
13
0p
0s
0r
1u
0t
1v
#360000
0!
0"
0b
0`
0d
0+!
0o
#365000
1!
1"
1b
1`
1d
1+!
1o
0_!
1\!
0]!
0^!
0K
0L
1M
0J
0q
0w
0u
1s
03
10
01
02
1p
0v
1t
1r
1w
0r
1x
1v
0t
0x
#370000
0!
0"
0b
0`
0d
0+!
0o
#375000
1!
1"
1b
1`
1d
1+!
1o
1_!
1J
1q
13
0p
1r
#380000
0!
0"
0b
0`
0d
0+!
0o
#385000
1!
1"
1b
1`
1d
1+!
1o
0_!
1^!
1K
0J
0q
0s
03
12
1p
0r
1s
1r
1t
0t
#390000
0!
0"
0b
0`
0d
0+!
0o
#395000
1!
1"
1b
1`
1d
1+!
1o
1_!
1J
1q
13
0p
0s
0r
1t
#400000
0!
0"
0b
0`
0d
0+!
0o
#405000
1!
1"
1b
1`
1d
1+!
1o
0_!
1]!
0^!
0K
1L
0J
0q
1u
1s
03
11
02
1p
0t
1r
0w
0u
0r
0v
1t
1w
1x
1v
0x
#410000
0!
0"
0b
0`
0d
0+!
0o
#415000
1!
1"
1b
1`
1d
1+!
1o
1_!
1J
1q
13
0p
1r
#420000
0!
0"
0b
0`
0d
0+!
0o
#425000
1!
1"
1b
1`
1d
1+!
1o
0_!
1^!
1K
0J
0q
0s
03
12
1p
0r
1s
1u
1r
0t
0u
0w
1t
0v
1w
1v
1x
0x
#430000
0!
0"
0b
0`
0d
0+!
0o
#435000
1!
1"
1b
1`
1d
1+!
1o
1_!
1J
1&!
1q
13
0p
0s
0r
1u
0t
0w
0v
1x
#440000
0!
0"
0b
0`
0d
0+!
0o
#445000
1!
1"
1b
1`
1d
1+!
1o
0_!
1[!
0\!
0]!
0^!
0K
0L
0M
1N
0J
0&!
0q
1y
1w
0u
1s
03
1/
00
01
02
1p
0x
1v
1t
1r
0y
0r
1z
1x
0v
0t
0z
#450000
0!
0"
0b
0`
0d
0+!
0o
#455000
1!
1"
1b
1`
1d
1+!
1o
1_!
1J
1q
13
0p
1r
#460000
0!
0"
0b
0`
0d
0+!
0o
#465000
1!
1"
1b
1`
1d
1+!
1o
0_!
1^!
1K
0J
0q
0s
03
12
1p
0r
1s
1r
1t
0t
#470000
0!
0"
0b
0`
0d
0+!
0o
#475000
1!
1"
1b
1`
1d
1+!
1o
1_!
1J
1q
13
0p
0s
0r
1t
#480000
0!
0"
0b
0`
0d
0+!
0o
#485000
1!
1"
1b
1`
1d
1+!
1o
0_!
1]!
0^!
0K
1L
0J
0q
1u
1s
03
11
02
1p
0t
1r
0u
0r
1v
1t
0v
#490000
0!
0"
0b
0`
0d
0+!
0o
#495000
1!
1"
1b
1`
1d
1+!
1o
1_!
1J
1q
13
0p
1r
#500000
0!
0"
0b
0`
0d
0+!
0o
#505000
1!
1"
1b
1`
1d
1+!
1o
0_!
1^!
1K
0J
0q
0s
03
12
1p
0r
1s
1u
1r
0t
0u
1t
1v
0v
#510000
0!
0"
0b
0`
0d
0+!
0o
#515000
1!
1"
1b
1`
1d
1+!
1o
1_!
1J
1q
13
0p
0s
0r
1u
0t
1v
#520000
0!
0"
0b
0`
0d
0+!
0o
#525000
1!
1"
1b
1`
1d
1+!
1o
0_!
1\!
0]!
0^!
0K
0L
1M
0J
0q
0w
0u
1s
03
10
01
02
1p
0v
1t
1r
1y
1w
0r
0x
1v
0t
0y
1z
1x
0z
#530000
0!
0"
0b
0`
0d
0+!
0o
#535000
1!
1"
1b
1`
1d
1+!
1o
1_!
1J
1q
13
0p
1r
#540000
0!
0"
0b
0`
0d
0+!
0o
#545000
1!
1"
1b
1`
1d
1+!
1o
0_!
1^!
1K
0J
0q
0s
03
12
1p
0r
1s
1r
1t
0t
#550000
0!
0"
0b
0`
0d
0+!
0o
#555000
1!
1"
1b
1`
1d
1+!
1o
1_!
1J
1q
13
0p
0s
0r
1t
#560000
0!
0"
0b
0`
0d
0+!
0o
#565000
1!
1"
1b
1`
1d
1+!
1o
0_!
1]!
0^!
0K
1L
0J
0q
1u
1s
03
11
02
1p
0t
1r
0w
0u
0r
0v
1t
1y
1w
0x
1v
0y
1z
1x
0z
#570000
0!
0"
0b
0`
0d
0+!
0o
#575000
1!
1"
1b
1`
1d
1+!
1o
1_!
1J
1q
13
0p
1r
#580000
0!
0"
0b
0`
0d
0+!
0o
#585000
1!
1"
1b
1`
1d
1+!
1o
0_!
1^!
1K
0J
0q
0s
03
12
1p
0r
1s
1u
1r
0t
0u
0w
1t
0v
1w
1y
1v
0x
0y
1x
1z
0z
#590000
0!
0"
0b
0`
0d
0+!
0o
#595000
1!
1"
1b
1`
1d
1+!
1o
1_!
1J
1&!
1q
13
0p
0s
0r
1u
0t
0w
0v
1y
0x
1z
#600000
0!
0"
0b
0`
0d
0+!
0o
#605000
1!
1"
1b
1`
1d
1+!
1o
0_!
1Z!
0[!
0\!
0]!
0^!
0K
0L
0M
0N
1O
0J
0&!
0q
0{
0y
1w
0u
1s
03
1.
0/
00
01
02
1p
0z
1x
1v
1t
1r
1{
0r
1|
1z
0x
0v
0t
0|
#610000
0!
0"
0b
0`
0d
0+!
0o
#615000
1!
1"
1b
1`
1d
1+!
1o
1_!
1J
1q
13
0p
1r
#620000
0!
0"
0b
0`
0d
0+!
0o
#625000
1!
1"
1b
1`
1d
1+!
1o
0_!
1^!
1K
0J
0q
0s
03
12
1p
0r
1s
1r
1t
0t
#630000
0!
0"
0b
0`
0d
0+!
0o
#635000
1!
1"
1b
1`
1d
1+!
1o
1_!
1J
1q
13
0p
0s
0r
1t
#640000
0!
0"
0b
0`
0d
0+!
0o
#645000
1!
1"
1b
1`
1d
1+!
1o
0_!
1]!
0^!
0K
1L
0J
0q
1u
1s
03
11
02
1p
0t
1r
0u
0r
1v
1t
0v
#650000
0!
0"
0b
0`
0d
0+!
0o
#655000
1!
1"
1b
1`
1d
1+!
1o
1_!
1J
1q
13
0p
1r
#660000
0!
0"
0b
0`
0d
0+!
0o
#665000
1!
1"
1b
1`
1d
1+!
1o
0_!
1^!
1K
0J
0q
0s
03
12
1p
0r
1s
1u
1r
0t
0u
1t
1v
0v
#670000
0!
0"
0b
0`
0d
0+!
0o
#675000
1!
1"
1b
1`
1d
1+!
1o
1_!
1J
1q
13
0p
0s
0r
1u
0t
1v
#680000
0!
0"
0b
0`
0d
0+!
0o
#685000
1!
1"
1b
1`
1d
1+!
1o
0_!
1\!
0]!
0^!
0K
0L
1M
0J
0q
0w
0u
1s
03
10
01
02
1p
0v
1t
1r
1w
0r
1x
1v
0t
0x
#690000
0!
0"
0b
0`
0d
0+!
0o
#695000
1!
1"
1b
1`
1d
1+!
1o
1_!
1J
1q
13
0p
1r
#700000
0!
0"
0b
0`
0d
0+!
0o
#705000
1!
1"
1b
1`
1d
1+!
1o
0_!
1^!
1K
0J
0q
0s
03
12
1p
0r
1s
1r
1t
0t
#710000
0!
0"
0b
0`
0d
0+!
0o
#715000
1!
1"
1b
1`
1d
1+!
1o
1_!
1J
1q
13
0p
0s
0r
1t
#720000
0!
0"
0b
0`
0d
0+!
0o
#725000
1!
1"
1b
1`
1d
1+!
1o
0_!
1]!
0^!
0K
1L
0J
0q
1u
1s
03
11
02
1p
0t
1r
0w
0u
0r
0v
1t
1w
1x
1v
0x
#730000
0!
0"
0b
0`
0d
0+!
0o
#735000
1!
1"
1b
1`
1d
1+!
1o
1_!
1J
1q
13
0p
1r
#740000
0!
0"
0b
0`
0d
0+!
0o
#745000
1!
1"
1b
1`
1d
1+!
1o
0_!
1^!
1K
0J
0q
0s
03
12
1p
0r
1s
1u
1r
0t
0u
0w
1t
0v
1w
1v
1x
0x
#750000
0!
0"
0b
0`
0d
0+!
0o
#755000
1!
1"
1b
1`
1d
1+!
1o
1_!
1J
1&!
1q
13
0p
0s
0r
1u
0t
0w
0v
1x
#760000
0!
0"
0b
0`
0d
0+!
0o
#765000
1!
1"
1b
1`
1d
1+!
1o
0_!
1[!
0\!
0]!
0^!
0K
0L
0M
1N
0J
0&!
0q
1y
1w
0u
1s
03
1/
00
01
02
1p
0x
1v
1t
1r
0{
0y
0r
0z
1x
0v
0t
1{
1|
1z
0|
#770000
0!
0"
0b
0`
0d
0+!
0o
#775000
1!
1"
1b
1`
1d
1+!
1o
1_!
1J
1q
13
0p
1r
#780000
0!
0"
0b
0`
0d
0+!
0o
#785000
1!
1"
1b
1`
1d
1+!
1o
0_!
1^!
1K
0J
0q
0s
03
12
1p
0r
1s
1r
1t
0t
#790000
0!
0"
0b
0`
0d
0+!
0o
#795000
1!
1"
1b
1`
1d
1+!
1o
1_!
1J
1q
13
0p
0s
0r
1t
#800000
0!
0"
0b
0`
0d
0+!
0o
#805000
1!
1"
1b
1`
1d
1+!
1o
0_!
1]!
0^!
0K
1L
0J
0q
1u
1s
03
11
02
1p
0t
1r
0u
0r
1v
1t
0v
#810000
0!
0"
0b
0`
0d
0+!
0o
#815000
1!
1"
1b
1`
1d
1+!
1o
1_!
1J
1q
13
0p
1r
#820000
0!
0"
0b
0`
0d
0+!
0o
#825000
1!
1"
1b
1`
1d
1+!
1o
0_!
1^!
1K
0J
0q
0s
03
12
1p
0r
1s
1u
1r
0t
0u
1t
1v
0v
#830000
0!
0"
0b
0`
0d
0+!
0o
#835000
1!
1"
1b
1`
1d
1+!
1o
1_!
1J
1q
13
0p
0s
0r
1u
0t
1v
#840000
0!
0"
0b
0`
0d
0+!
0o
#845000
1!
1"
1b
1`
1d
1+!
1o
0_!
1\!
0]!
0^!
0K
0L
1M
0J
0q
0w
0u
1s
03
10
01
02
1p
0v
1t
1r
1y
1w
0r
0x
1v
0t
0{
0y
0z
1x
1{
1|
1z
0|
#850000
0!
0"
0b
0`
0d
0+!
0o
#855000
1!
1"
1b
1`
1d
1+!
1o
1_!
1J
1q
13
0p
1r
#860000
0!
0"
0b
0`
0d
0+!
0o
#865000
1!
1"
1b
1`
1d
1+!
1o
0_!
1^!
1K
0J
0q
0s
03
12
1p
0r
1s
1r
1t
0t
#870000
0!
0"
0b
0`
0d
0+!
0o
#875000
1!
1"
1b
1`
1d
1+!
1o
1_!
1J
1q
13
0p
0s
0r
1t
#880000
0#
0!
0"
0c
0b
0`
0+!
0o
0^!
0\!
0[!
0Z!
0_!
0J
0O
0N
0M
0K
1s
0q
02
00
0/
0.
03
1r
0v
0x
0z
1p
0t
0r
#885000
1!
1"
1b
1`
1+!
1o
#890000
1#
0!
0"
1c
0b
0`
0d
0+!
0o
#895000
1!
1"
1b
1`
1d
1+!
1o
1_!
1J
1q
13
0p
1r
#900000
0!
0"
0b
0`
0d
0+!
0o
#905000
1!
1"
1b
1`
1d
1+!
1o
0_!
1^!
1K
0J
0q
0s
03
12
1p
0r
1s
1r
1t
0t
#910000
0!
0"
0b
0`
0d
0+!
0o
#915000
1!
1"
1b
1`
1d
1+!
1o
1_!
1J
1q
13
0p
0s
0r
1t
#920000
0!
0"
0b
0`
0d
0+!
0o
#925000
1!
1"
1b
1`
1d
1+!
1o
0_!
1]!
0^!
0K
1L
0J
0q
1u
1s
03
11
02
1p
0t
1r
0u
0r
1v
1t
0v
#930000
0!
0"
0b
0`
0d
0+!
0o
#935000
1!
1"
1b
1`
1d
1+!
1o
1_!
1J
1q
13
0p
1r
#940000
0!
0"
0b
0`
0d
0+!
0o
#945000
1!
1"
1b
1`
1d
1+!
1o
0_!
1^!
1K
0J
0q
0s
03
12
1p
0r
1s
1u
1r
0t
0u
1t
1v
0v
#950000
0!
0"
0b
0`
0d
0+!
0o
#955000
1!
1"
1b
1`
1d
1+!
1o
1_!
1J
1q
13
0p
0s
0r
1u
0t
1v
#960000
0!
0"
0b
0`
0d
0+!
0o
#965000
1!
1"
1b
1`
1d
1+!
1o
0_!
1\!
0]!
0^!
0K
0L
1M
0J
0q
0w
0u
1s
03
10
01
02
1p
0v
1t
1r
1w
0r
1x
1v
0t
0x
#970000
0!
0"
0b
0`
0d
0+!
0o
#975000
1!
1"
1b
1`
1d
1+!
1o
1_!
1J
1q
13
0p
1r
#980000
0!
0"
0b
0`
0d
0+!
0o
#985000
1!
1"
1b
1`
1d
1+!
1o
0_!
1^!
1K
0J
0q
0s
03
12
1p
0r
1s
1r
1t
0t
#990000
0!
0"
0b
0`
0d
0+!
0o
#995000
1!
1"
1b
1`
1d
1+!
1o
1_!
1J
1q
13
0p
0s
0r
1t
